Journal (reproducible report)
…
# import files ----
bikes_tbl      <- read_excel(path = "DS_101/00_data/01_bike_sales/01_raw_data/bikes.xlsx")
orderlines_tbl <- read_excel("DS_101/00_data/01_bike_sales/01_raw_data/orderlines.xlsx")
bikeshops_tbl  <- read_excel("DS_101/00_data/01_bike_sales/01_raw_data/bikeshops.xlsx")

# examine data ----
#bikeshops_tbl
#glimpse(bikeshops_tbl)

# join data ----
left_join(orderlines_tbl, bikeshops_tbl, by = c("customer.id" = "bikeshop.id"))

## # A tibble: 15,644 x 11
##    ...1  order.id order.line order.date          customer.id
##    <chr>    <dbl>      <dbl> <dttm>                    <dbl>
##  1 1            1          1 2015-01-07 00:00:00           2
##  2 2            1          2 2015-01-07 00:00:00           2
##  3 3            2          1 2015-01-10 00:00:00          10
##  4 4            2          2 2015-01-10 00:00:00          10
##  5 5            3          1 2015-01-10 00:00:00           6
##  6 6            3          2 2015-01-10 00:00:00           6
##  7 7            3          3 2015-01-10 00:00:00           6
##  8 8            3          4 2015-01-10 00:00:00           6
##  9 9            3          5 2015-01-10 00:00:00           6
## 10 10           4          1 2015-01-11 00:00:00          22
## # ... with 15,634 more rows, and 6 more variables:
## #   product.id <dbl>, quantity <dbl>, name <chr>,
## #   location <chr>, lat <dbl>, lng <dbl>
…
  # Group by and summarize year and main category
  group_by(year, state) %>%
  summarise(sales = sum(total_price)) %>%
  ungroup() %>%
  
  # Format $ Text
  mutate(sales_text = scales::dollar(sales, big.mark = ".",
                                     decimal.mark = ",", 
                                     prefix = "", 
                                     suffix = " €"))

sales_by_year_state_tbl 

## # A tibble: 60 x 4
##     year state                           sales sales_text 
##    <dbl> <chr>                           <dbl> <chr>      
##  1  2015 Baden-Württemberg             1031924 1.031.924 €
##  2  2015 Bavaria                       1301461 1.301.461 €
##  3  2015 Berlin                          95853 95.853 €   
##  4  2015 Bremen                        1395912 1.395.912 €
##  5  2015 Hamburg                        423090 423.090 €  
##  6  2015 Hesse                          308609 308.609 €  
##  7  2015 Lower Saxony                   584386 584.386 €  
##  8  2015 Mecklenburg-Western Pomerania  222003 222.003 €  
##  9  2015 North Rhine-Westphalia        3735092 3.735.092 €
## 10  2015 Saxony                         238371 238.371 €  
## # ... with 50 more rows
…
